Project 1
…
arrange(select(filter(Project1, continent=="Oceania"), country, Score, total_litres_of_pure_alcohol), desc(Score))

## # A tibble: 2 x 3
##   country     Score total_litres_of_pure_alcohol
##   <chr>       <dbl>                        <dbl>
## 1 New Zealand  7.31                          9.3
## 2 Australia    7.23                         10.4

arrange(select(filter(Project1, continent=="Africa"), country, Score, total_litres_of_pure_alcohol), desc(Score))

## # A tibble: 41 x 3
##    country      Score total_litres_of_pure_alcohol
##    <chr>        <dbl>                        <dbl>
##  1 Mauritius     5.89                          2.6
##  2 Libya         5.52                          0  
##  3 Nigeria       5.26                          9.1
##  4 Algeria       5.21                          0.7
##  5 Morocco       5.21                          0.5
##  6 Cameroon      5.04                          5.8
##  7 Ghana         5.00                          1.8
##  8 Benin         4.88                          1.1
##  9 Gabon         4.80                          8.9
## 10 South Africa  4.72                          8.2
## # … with 31 more rows
…
cormat <- Short_P2 %>% select_if(is.numeric) %>% cor(use="pair")
tidycor <- cormat %>% as.data.frame %>% rownames_to_column("var1") %>%pivot_longer(-1,names_to="var2",values_to="correlation")
tidycor

## # A tibble: 25 x 3
##    var1           var2                         correlation
##    <chr>          <chr>                              <dbl>
##  1 Score          Score                              1    
##  2 Score          Social support                     0.774
##  3 Score          GDP per capita                     0.794
##  4 Score          Perceptions of corruption          0.403
##  5 Score          total_litres_of_pure_alcohol       0.501
##  6 Social support Score                              0.774
##  7 Social support Social support                     1    
##  8 Social support GDP per capita                     0.759
##  9 Social support Perceptions of corruption          0.189
## 10 Social support total_litres_of_pure_alcohol       0.531
## # … with 15 more rows
…
